QUERY	DB	CONF	QSEQ	DBSEQ	SAME_LIN	DIFF_LIN	ASN_GEN	UNASN_GEN	ALL_ID_GEN	SAME_ID_GEN	DIFF_ID_GEN	ALL_UNID_GEN	SAME_UNID_GEN	DIFF_UNID_GEN	ASN_SPEC	UNASN_SPEC	ALL_ID_SPEC	SAME_ID_SPEC	DIFF_ID_SPEC	ALL_UNID_SPEC	SAME_UNID_SPEC	DIFF_UNID_SPEC
full	full	0.5	43344	43344	36757	6587	43325	19	28182	28132	50	15143	10468	4675	41724	1620	18183	18133	50	23541	20678	2863
full	full	0.6	43344	43344	36341	7003	43286	58	28153	28111	42	15133	10052	5081	40575	2769	18163	18118	45	22412	19937	2475
full	full	0.7	43344	43344	35872	7472	43224	120	28106	28073	33	15118	9599	5519	39398	3946	18128	18090	38	21270	19191	2079
full	full	0.8	43344	43344	35311	8033	43164	180	28054	28026	28	15110	9101	6009	38208	5136	18078	18052	26	20130	18414	1716
full	full	0.9	43344	43344	34433	8911	43048	296	27945	27925	20	15103	8435	6668	36625	6719	17985	17973	12	18640	17322	1318
full	full	1	43344	43344	31343	12001	42472	872	27381	27371	10	15091	6470	8621	32315	11029	17392	17388	4	14923	14305	618
its1	full	0.5	43204	43344	34540	8664	42905	299	27795	27707	88	15110	8984	6126	39247	3957	17890	17794	96	21357	18672	2685
its1	full	0.6	43204	43344	33846	9358	42831	373	27736	27656	80	15095	8426	6669	37727	5477	17828	17738	90	19899	17661	2238
its1	full	0.7	43204	43344	33074	10130	42710	494	27629	27566	63	15081	7824	7257	36150	7054	17710	17639	71	18440	16648	1792
its1	full	0.8	43204	43344	32101	11103	42558	646	27496	27443	53	15062	7096	7966	34454	8750	17559	17501	58	16895	15505	1390
its1	full	0.9	43204	43344	30726	12478	42316	888	27271	27225	46	15045	6160	8885	32358	10846	17258	17218	40	15100	14121	979
its1	full	1	43204	43344	25689	17515	40724	2480	25697	25679	18	15027	4059	10968	26304	16900	15428	15410	18	10876	10515	361
its1	its1	0.5	43204	43204	35827	7377	43049	155	27962	27891	71	15087	9883	5204	40255	2949	18022	17927	95	22233	19698	2535
its1	its1	0.6	43204	43204	35193	8011	42991	213	27915	27848	67	15076	9351	5725	38871	4333	17956	17871	85	20915	18784	2131
its1	its1	0.7	43204	43204	34436	8768	42907	297	27840	27780	60	15067	8753	6314	37393	5811	17860	17790	70	19533	17798	1735
its1	its1	0.8	43204	43204	33483	9721	42791	413	27736	27689	47	15055	8063	6992	35738	7466	17721	17670	51	18017	16686	1331
its1	its1	0.9	43204	43204	32088	11116	42573	631	27528	27489	39	15045	7123	7922	33684	9520	17442	17406	36	16242	15285	957
its1	its1	1	43204	43204	27026	16178	41212	1992	26187	26170	17	15025	4833	10192	27607	15597	15717	15701	16	11890	11539	351
its2	full	0.5	42996	43344	34327	8669	42646	350	27636	27525	111	15010	9052	5958	39192	3804	17766	17621	145	21426	18649	2777
its2	full	0.6	42996	43344	33669	9327	42552	444	27562	27461	101	14990	8563	6427	37627	5369	17656	17529	127	19971	17700	2271
its2	full	0.7	42996	43344	32857	10139	42402	594	27430	27349	81	14972	7977	6995	36063	6933	17500	17394	106	18563	16710	1853
its2	full	0.8	42996	43344	31742	11254	42192	804	27239	27177	62	14953	7274	7679	34197	8799	17248	17169	79	16949	15531	1418
its2	full	0.9	42996	43344	30080	12916	41828	1168	26886	26843	43	14942	6371	8571	31811	11185	16771	16712	59	15040	14029	1011
its2	full	1	42996	43344	24384	18612	39761	3235	24833	24810	23	14928	4176	10752	25040	17956	14468	14442	26	10572	10193	379
its2	its2	0.5	42996	42996	35628	7368	42804	192	27815	27719	96	14989	9932	5057	40133	2863	17903	17767	136	22230	19684	2546
its2	its2	0.6	42996	42996	35009	7987	42719	277	27741	27652	89	14978	9443	5535	38736	4260	17785	17666	119	20951	18818	2133
its2	its2	0.7	42996	42996	34184	8812	42614	382	27652	27579	73	14962	8850	6112	37192	5804	17649	17551	98	19543	17809	1734
its2	its2	0.8	42996	42996	33144	9852	42406	590	27456	27402	54	14950	8200	6750	35484	7512	17418	17338	80	18066	16722	1344
its2	its2	0.9	42996	42996	31500	11496	42075	921	27131	27091	40	14944	7339	7605	33165	9831	16971	16910	61	16194	15225	969
its2	its2	1	42996	42996	25577	17419	40211	2785	25285	25261	24	14926	4927	9999	26214	16782	14700	14671	29	11514	11142	372
