Acantharia	"Acantharia"[orgn] AND fungi[filter]
Acanthophiobolus	"Acanthophiobolus"[orgn] AND fungi[filter]
Acanthostigma	"Acanthostigma"[orgn] AND fungi[filter]
Acrocordia	"Acrocordia"[orgn] AND fungi[filter]
Acrogenotheca	"Acrogenotheca"[orgn] AND fungi[filter]
Acrospermum	"Acrospermum"[orgn] AND fungi[filter]
Actidium	"Actidium"[orgn] AND fungi[filter]
Actinostilbe	"Actinostilbe"[orgn] AND fungi[filter]
Alternaria	"Alternaria"[orgn] AND fungi[filter]
Ampelomyces	"Ampelomyces"[orgn] AND fungi[filter]
